[RemoteTestNG] detected TestNG version 7.4.0
0 [main] INFO Project.Simplilearn_Phase_3_Assessment.GET_list_of_users  - *************** Inside Before Class *******************
26 [main] INFO Project.Simplilearn_Phase_3_Assessment.GET_list_of_users  - *************** Inside Before Class *******************
27 [main] INFO Project.Simplilearn_Phase_3_Assessment.GET_list_of_users  - Hello!!!!  This is my Phase 3 assessment project
954 [main] INFO Project.Simplilearn_Phase_3_Assessment.GET_list_of_users  - STEP 1: assign base URI
1176 [main] INFO Project.Simplilearn_Phase_3_Assessment.GET_list_of_users  - STEP 2: forming request specification
2348 [main] DEBUG org.apache.http.impl.conn.BasicClientConnectionManager  - Get connection for route {s}->https://reqres.in:443
2424 [main] DEBUG org.apache.http.impl.conn.DefaultClientConnectionOperator  - Connecting to reqres.in:443
3921 [main] DEBUG org.apache.http.client.protocol.RequestAddCookies  - CookieSpec selected: ignoreCookies
3924 [main] DEBUG org.apache.http.client.protocol.RequestAuthCache  - Auth cache not set in the context
3924 [main] DEBUG org.apache.http.client.protocol.RequestTargetAuthentication  - Target auth state: UNCHALLENGED
3926 [main] DEBUG org.apache.http.client.protocol.RequestProxyAuthentication  - Proxy auth state: UNCHALLENGED
3926 [main] DEBUG org.apache.http.impl.client.DefaultHttpClient  - Attempt 1 to execute request
3926 [main] DEBUG org.apache.http.impl.conn.DefaultClientConnection  - Sending request: GET /api/users?page=2 HTTP/1.1
3927 [main] DEBUG org.apache.http.wire  -  >> "GET /api/users?page=2 HTTP/1.1[\r][\n]"
3928 [main] DEBUG org.apache.http.wire  -  >> "Accept: */*[\r][\n]"
3928 [main] DEBUG org.apache.http.wire  -  >> "Host: reqres.in[\r][\n]"
3928 [main] DEBUG org.apache.http.wire  -  >> "Connection: Keep-Alive[\r][\n]"
3928 [main] DEBUG org.apache.http.wire  -  >> "User-Agent: Apache-HttpClient/4.5.3 (Java/15.0.2)[\r][\n]"
3929 [main] DEBUG org.apache.http.wire  -  >> "Accept-Encoding: gzip,deflate[\r][\n]"
3929 [main] DEBUG org.apache.http.wire  -  >> "[\r][\n]"
3929 [main] DEBUG org.apache.http.headers  - >> GET /api/users?page=2 HTTP/1.1
3929 [main] DEBUG org.apache.http.headers  - >> Accept: */*
3929 [main] DEBUG org.apache.http.headers  - >> Host: reqres.in
3929 [main] DEBUG org.apache.http.headers  - >> Connection: Keep-Alive
3929 [main] DEBUG org.apache.http.headers  - >> User-Agent: Apache-HttpClient/4.5.3 (Java/15.0.2)
3930 [main] DEBUG org.apache.http.headers  - >> Accept-Encoding: gzip,deflate
4065 [main] DEBUG org.apache.http.wire  -  << "HTTP/1.1 200 OK[\r][\n]"
4069 [main] DEBUG org.apache.http.wire  -  << "Date: Wed, 09 Jun 2021 09:27:59 GMT[\r][\n]"
4070 [main] DEBUG org.apache.http.wire  -  << "Content-Type: application/json; charset=utf-8[\r][\n]"
4070 [main] DEBUG org.apache.http.wire  -  << "Transfer-Encoding: chunked[\r][\n]"
4070 [main] DEBUG org.apache.http.wire  -  << "Connection: keep-alive[\r][\n]"
4070 [main] DEBUG org.apache.http.wire  -  << "X-Powered-By: Express[\r][\n]"
4070 [main] DEBUG org.apache.http.wire  -  << "Access-Control-Allow-Origin: *[\r][\n]"
4071 [main] DEBUG org.apache.http.wire  -  << "Etag: W/"406-ut0vzoCuidvyMf8arZpMpJ6ZRDw"[\r][\n]"
4071 [main] DEBUG org.apache.http.wire  -  << "Via: 1.1 vegur[\r][\n]"
4071 [main] DEBUG org.apache.http.wire  -  << "Cache-Control: max-age=14400[\r][\n]"
4071 [main] DEBUG org.apache.http.wire  -  << "CF-Cache-Status: HIT[\r][\n]"
4072 [main] DEBUG org.apache.http.wire  -  << "Age: 2431[\r][\n]"
4072 [main] DEBUG org.apache.http.wire  -  << "cf-request-id: 0a91b2af300000d593bb3c8000000001[\r][\n]"
4073 [main] DEBUG org.apache.http.wire  -  << "Expect-CT: max-age=604800, report-uri="https://report-uri.cloudflare.com/cdn-cgi/beacon/expect-ct"[\r][\n]"
4073 [main] DEBUG org.apache.http.wire  -  << "Report-To: {"endpoints":[{"url":"https:\/\/a.nel.cloudflare.com\/report\/v2?s=Gn%2BpOI54R6%2FqoyyA6xTY62u5SbIDnf74U7ZdI5OKYbl3I6LFRQ75u62J5dhn5SDPRH%2FgM8jSFFrD3Hnvv8bk2x400Emo3k0mmGg%2F3KSLiIT0olA4Z8Z2"}],"group":"cf-nel","max_age":604800}[\r][\n]"
4074 [main] DEBUG org.apache.http.wire  -  << "NEL: {"report_to":"cf-nel","max_age":604800}[\r][\n]"
4074 [main] DEBUG org.apache.http.wire  -  << "Vary: Accept-Encoding[\r][\n]"
4075 [main] DEBUG org.apache.http.wire  -  << "Server: cloudflare[\r][\n]"
4075 [main] DEBUG org.apache.http.wire  -  << "CF-RAY: 65c953c51c77d593-BOM[\r][\n]"
4075 [main] DEBUG org.apache.http.wire  -  << "Content-Encoding: gzip[\r][\n]"
4076 [main] DEBUG org.apache.http.wire  -  << "alt-svc: h3-27=":443"; ma=86400, h3-28=":443"; ma=86400, h3-29=":443"; ma=86400, h3=":443"; ma=86400[\r][\n]"
4076 [main] DEBUG org.apache.http.wire  -  << "[\r][\n]"
4079 [main] DEBUG org.apache.http.impl.conn.DefaultClientConnection  - Receiving response: HTTP/1.1 200 OK
4079 [main] DEBUG org.apache.http.headers  - << HTTP/1.1 200 OK
4079 [main] DEBUG org.apache.http.headers  - << Date: Wed, 09 Jun 2021 09:27:59 GMT
4079 [main] DEBUG org.apache.http.headers  - << Content-Type: application/json; charset=utf-8
4080 [main] DEBUG org.apache.http.headers  - << Transfer-Encoding: chunked
4080 [main] DEBUG org.apache.http.headers  - << Connection: keep-alive
4080 [main] DEBUG org.apache.http.headers  - << X-Powered-By: Express
4081 [main] DEBUG org.apache.http.headers  - << Access-Control-Allow-Origin: *
4081 [main] DEBUG org.apache.http.headers  - << Etag: W/"406-ut0vzoCuidvyMf8arZpMpJ6ZRDw"
4081 [main] DEBUG org.apache.http.headers  - << Via: 1.1 vegur
4082 [main] DEBUG org.apache.http.headers  - << Cache-Control: max-age=14400
4082 [main] DEBUG org.apache.http.headers  - << CF-Cache-Status: HIT
4082 [main] DEBUG org.apache.http.headers  - << Age: 2431
4082 [main] DEBUG org.apache.http.headers  - << cf-request-id: 0a91b2af300000d593bb3c8000000001
4082 [main] DEBUG org.apache.http.headers  - << Expect-CT: max-age=604800, report-uri="https://report-uri.cloudflare.com/cdn-cgi/beacon/expect-ct"
4082 [main] DEBUG org.apache.http.headers  - << Report-To: {"endpoints":[{"url":"https:\/\/a.nel.cloudflare.com\/report\/v2?s=Gn%2BpOI54R6%2FqoyyA6xTY62u5SbIDnf74U7ZdI5OKYbl3I6LFRQ75u62J5dhn5SDPRH%2FgM8jSFFrD3Hnvv8bk2x400Emo3k0mmGg%2F3KSLiIT0olA4Z8Z2"}],"group":"cf-nel","max_age":604800}
4083 [main] DEBUG org.apache.http.headers  - << NEL: {"report_to":"cf-nel","max_age":604800}
4083 [main] DEBUG org.apache.http.headers  - << Vary: Accept-Encoding
4083 [main] DEBUG org.apache.http.headers  - << Server: cloudflare
4083 [main] DEBUG org.apache.http.headers  - << CF-RAY: 65c953c51c77d593-BOM
4083 [main] DEBUG org.apache.http.headers  - << Content-Encoding: gzip
4084 [main] DEBUG org.apache.http.headers  - << alt-svc: h3-27=":443"; ma=86400, h3-28=":443"; ma=86400, h3-29=":443"; ma=86400, h3=":443"; ma=86400
4099 [main] DEBUG org.apache.http.impl.client.DefaultHttpClient  - Connection can be kept alive indefinitely
4151 [main] DEBUG io.restassured.internal.RequestSpecificationImpl$RestAssuredHttpBuilder  - Parsing response as: application/json; charset=utf-8
4152 [main] DEBUG org.apache.http.wire  -  << "17b[\r][\n]"
4153 [main] DEBUG org.apache.http.wire  -  << "[0x1f][0x8b][0x8][0x0][0x0][0x0][0x0][0x0][0x0][0x3][0x8d][0xd2][0xcd]n[0xa3]0[0x14][0x86][0xe1][q[0xcf]l](Y[0xf4][0xc7][0xab][0xaa][0xd2][0xcc]t[0xd1]n[0xa2][0xd9]U[0xa3][0xea][0x4][0xe][0xe0][0xd6][0xd8][0xee][0xb1]i[0xa6][0x8a]r[0xef]UM4T[0x88]D[0xec][0x0][0xbf][0x1f]z[0x84][0xd8][0x81][0xc7][0x86]@[0xad]$x[0xe2][0xe7][0xe1][0xe6]RBt[0x11][\r][0xa8]bu[0xb8]L'!u[0x15]F[0x4][0xf5][0xb4][0x3]][0x81][0xba][0x92]@[0x1d]j[0x3][\n]"
4153 [main] DEBUG org.apache.http.wire  -  << ":][0xb6]H&3[0xb8][\r][0xce][0xde]2[0xbd]1[0x85]L[[0x90]Pk[0xe][0xf1][0xd9]bG[0xa0][0xe0]q[0xe8]@[0x82][0xc1][0xf1][0xe9]CZ[0x81][0x4]|[0xc7][0x88][0xc][\n]"
4156 [main] DEBUG org.apache.http.wire  -  << "[0xda][0x18]}Py[0xfe][0xff]E[0xb9][0xee][0x9a][0xbc][0xc6][0x92]B~u[0xae];l({[0xf1][\r][0xec][0xe5]@[0xb9][0x1e])F[0xdb]*[0xe0]GV[0x13]7[0xfd]I[0xcc][0xc3]PN0[0xbf][0xe][0xbb][0xa5][0x9c][0xeb][0x19][0xce][0xcd][0xc8][0x89]n[0xa3]1duo_[0xe9]8[0xe5]O[0xaa][0xa6][0x92][0xaf][0xcd]R[0xc6][0xcd][0xc][0xa3][0xb8][0x18][0x1d][0x9b][0xf]v6[0xab]5[0x99]*[0x1c]w[0xdc]}USF[0xda],u[0x14][0x17]s[0x90]b[0x84]4[0xe4][0xb8][0xa1][0x8c][0xaa]-[0xf2])[0xca][0xef][0xd4]M,?[0x87][0xd5]bL1[0x87]Y[0x8d][0x18][0xc6][0xb2]%[0x93][0xb5]nK[0xc6][0x1c][0xb7][0xac]S6[0xb1][0xdc][0xa7][0xd1]b[0xca][0xea];[0xe5][0xaf][0x84][0xd0]{[0xef]8[0x82][0xda]A[0xcf]fv[0xfd][0xe3][0xd0][0x9c][0xb7][0x84][0x95][0xb6][\r]H[0x88][0xf4]/[0xa6][0xff]E[0xbc][0x12]y[0xb1][0xa6][0xb7]5[0x5]Q3[0x91][0x14][0xa5][0xb3][0x91][0xf5][0xa6][0x8f][0xda][0xd9] [0xa2]K[0x9f]J[0x4][0xe2]wbQ[0xba][0x10][0x83]@&[0x81][0xde]3[0x95][0x1a]#Ug[0xb0][0xdf][0x2][0xf6][0x16][0x88]W[0x6][0x4][0x0][0x0]"
4172 [main] DEBUG org.apache.http.wire  -  << "[\r][\n]"
4172 [main] DEBUG org.apache.http.wire  -  << "0[\r][\n]"
4173 [main] DEBUG org.apache.http.wire  -  << "[\r][\n]"
4173 [main] DEBUG io.restassured.internal.RequestSpecificationImpl$RestAssuredHttpBuilder  - Parsed data to instance of: class org.apache.http.conn.EofSensorInputStream
4246 [main] INFO Project.Simplilearn_Phase_3_Assessment.GET_list_of_users  - STEP 3: defining type of HTTP Method (here we are giving GET)
4247 [main] INFO Project.Simplilearn_Phase_3_Assessment.GET_list_of_users  - STEP 4: also giving the path to the required URI
Key: Date ---- Value: Wed, 09 Jun 2021 09:27:59 GMT
Key: Content-Type ---- Value: application/json; charset=utf-8
Key: Transfer-Encoding ---- Value: chunked
Key: Connection ---- Value: keep-alive
Key: X-Powered-By ---- Value: Express
Key: Access-Control-Allow-Origin ---- Value: *
Key: Etag ---- Value: W/"406-ut0vzoCuidvyMf8arZpMpJ6ZRDw"
Key: Via ---- Value: 1.1 vegur
Key: Cache-Control ---- Value: max-age=14400
Key: CF-Cache-Status ---- Value: HIT
Key: Age ---- Value: 2431
Key: cf-request-id ---- Value: 0a91b2af300000d593bb3c8000000001
Key: Expect-CT ---- Value: max-age=604800, report-uri="https://report-uri.cloudflare.com/cdn-cgi/beacon/expect-ct"
Key: Report-To ---- Value: {"endpoints":[{"url":"https:\/\/a.nel.cloudflare.com\/report\/v2?s=Gn%2BpOI54R6%2FqoyyA6xTY62u5SbIDnf74U7ZdI5OKYbl3I6LFRQ75u62J5dhn5SDPRH%2FgM8jSFFrD3Hnvv8bk2x400Emo3k0mmGg%2F3KSLiIT0olA4Z8Z2"}],"group":"cf-nel","max_age":604800}
Key: NEL ---- Value: {"report_to":"cf-nel","max_age":604800}
Key: Vary ---- Value: Accept-Encoding
Key: Server ---- Value: cloudflare
Key: CF-RAY ---- Value: 65c953c51c77d593-BOM
Key: Content-Encoding ---- Value: gzip
Key: alt-svc ---- Value: h3-27=":443"; ma=86400, h3-28=":443"; ma=86400, h3-29=":443"; ma=86400, h3=":443"; ma=86400
"Status Code" is => 200
4253 [main] INFO Project.Simplilearn_Phase_3_Assessment.GET_list_of_users  - STEP 5: extracting and asserting the HTTP Status Code received from the server
"Status Line" is => HTTP/1.1 200 OK
4253 [main] INFO Project.Simplilearn_Phase_3_Assessment.GET_list_of_users  - STEP 6: extracting and asserting the HTTP Status Line received from the server
4279 [main] DEBUG org.apache.http.impl.conn.BasicClientConnectionManager  - Releasing connection org.apache.http.impl.conn.ManagedClientConnectionImpl@4715ae33
4282 [main] DEBUG org.apache.http.impl.conn.BasicClientConnectionManager  - Connection can be kept alive indefinitely
"Response Body" is =>  {"page":2,"per_page":6,"total":12,"total_pages":2,"data":[{"id":7,"email":"michael.lawson@reqres.in","first_name":"Michael","last_name":"Lawson","avatar":"https://reqres.in/img/faces/7-image.jpg"},{"id":8,"email":"lindsay.ferguson@reqres.in","first_name":"Lindsay","last_name":"Ferguson","avatar":"https://reqres.in/img/faces/8-image.jpg"},{"id":9,"email":"tobias.funke@reqres.in","first_name":"Tobias","last_name":"Funke","avatar":"https://reqres.in/img/faces/9-image.jpg"},{"id":10,"email":"byron.fields@reqres.in","first_name":"Byron","last_name":"Fields","avatar":"https://reqres.in/img/faces/10-image.jpg"},{"id":11,"email":"george.edwards@reqres.in","first_name":"George","last_name":"Edwards","avatar":"https://reqres.in/img/faces/11-image.jpg"},{"id":12,"email":"rachel.howell@reqres.in","first_name":"Rachel","last_name":"Howell","avatar":"https://reqres.in/img/faces/12-image.jpg"}],"support":{"url":"https://reqres.in/#support-heading","text":"To keep ReqRes free, contributions towards server costs are appreciated!"}}
4287 [main] INFO Project.Simplilearn_Phase_3_Assessment.GET_list_of_users  - STEP 7: extracting the HTTP response received from the server
PASSED: GetListOfUsers

===============================================
    Default test
    Tests run: 1, Failures: 0, Skips: 0
===============================================


===============================================
Default suite
Total tests run: 1, Passes: 1, Failures: 0, Skips: 0
===============================================

